{
  "platformName": "Android",
  "platformVersion": "{platformVersion}",
  "deviceName": "{resultOfAdbDevices}",
  "appPackage": "com.agence3pp",
  "appActivity": "qosi.fr.usingqosiframework.splashscreen.SplashscreenActivity",
  "autoGrantPermissions": "true",
  "autoAcceptAlerts": "true"
}